<?xml version="1.0" encoding="UTF-8"?>
<testng-results skipped="0" failed="0" total="0" passed="0">
  <reporter-output>
  </reporter-output>
  <suite name="Surefire suite" duration-ms="4220" started-at="2019-12-15T07:27:02Z" finished-at="2019-12-15T07:27:06Z">
    <groups>
    </groups>
    <test name="Surefire test" duration-ms="4220" started-at="2019-12-15T07:27:02Z" finished-at="2019-12-15T07:27:06Z">
    </test> <!-- Surefire test -->
  </suite> <!-- Surefire suite -->
</testng-results>
